Project 1 Script
…
Step 2: Preprocess Data

# Split data into training/testing sets
split <- initial_split(targets_df, prop = 0.80, strata = site_id)
split

## <Training/Testing/Total>
## <7347/1839/9186>

# Applying the training and testing functions to assign these datasets
train_data <- training(split)
test_data <- testing(split)
train_data

## # A tibble: 7,347 x 6
##    datetime   site_id temperature surface_downwelling_l~1 surface_downwelling_~2
##    <date>     <chr>         <dbl>                   <dbl>                  <dbl>
##  1 2017-08-27 BARC           31.5                      NA                     NA
##  2 2017-08-28 BARC           31.1                      NA                     NA
##  3 2017-08-29 BARC           31.1                      NA                     NA
##  4 2017-08-30 BARC           31.4                      NA                     NA
##  5 2017-08-31 BARC           31.7                      NA                     NA
##  6 2017-09-01 BARC           31.6                      NA                     NA
##  7 2017-09-02 BARC           31.1                      NA                     NA
##  8 2017-09-03 BARC           31.1                      NA                     NA
##  9 2017-09-06 BARC           30.8                      NA                     NA
## 10 2017-09-07 BARC           30.5                      NA                     NA
## # i 7,337 more rows
## # i abbreviated names: 1: surface_downwelling_longwave_flux_in_air,
## #   2: surface_downwelling_shortwave_flux_in_air
## # i 1 more variable: doy <dbl>
…
Step 5: Predict

# Generating predictions
predictions <- predict(fit, new_data = test_data)
predictions

## # A tibble: 1,839 x 1
##    .pred
##    <dbl>
##  1 11.0 
##  2 11.0 
##  3 11.0 
##  4 11.0 
##  5 11.0 
##  6 11.4 
##  7 10.1 
##  8  9.89
##  9  9.89
## 10  5.95
## # i 1,829 more rows

# Binding predictions
pred_test <- bind_cols(test_data, predictions)
pred_test

## # A tibble: 1,839 x 7
##    datetime   site_id temperature surface_downwelling_l~1 surface_downwelling_~2
##    <date>     <chr>         <dbl>                   <dbl>                  <dbl>
##  1 2017-09-04 BARC           31.4                      NA                     NA
##  2 2017-09-05 BARC           31.0                      NA                     NA
##  3 2017-09-11 BARC           27.1                      NA                     NA
##  4 2017-09-14 BARC           28.5                      NA                     NA
##  5 2017-09-19 BARC           28.8                      NA                     NA
##  6 2017-09-22 BARC           29.0                      NA                     NA
##  7 2017-09-29 BARC           30.1                      NA                     NA
##  8 2017-10-04 BARC           27.6                      NA                     NA
##  9 2017-10-06 BARC           27.6                      NA                     NA
## 10 2017-11-03 BARC           22.6                      NA                     NA
## # i 1,829 more rows
## # i abbreviated names: 1: surface_downwelling_longwave_flux_in_air,
## #   2: surface_downwelling_shortwave_flux_in_air
## # i 2 more variables: doy <dbl>, .pred <dbl>
…
Step 7: Deploy Model

# Reading in new data
targets_future <- noaa_future_daily |> 
  mutate(temperature = NA,
         doy = yday(datetime)) |> 
  filter(parameter == 1) |> 
  select(-parameter)

targets_future

## # A tibble: 245 x 6
##    datetime   site_id surface_downwelling_l~1 surface_downwelling_~2 temperature
##    <date>     <chr>                     <dbl>                  <dbl> <lgl>      
##  1 2024-05-04 BARC                       379.                   259. NA         
##  2 2024-05-04 CRAM                       300.                   183. NA         
##  3 2024-05-04 LIRO                       300.                   183. NA         
##  4 2024-05-04 PRLA                       296.                   220. NA         
##  5 2024-05-04 PRPO                       297.                   185. NA         
##  6 2024-05-04 SUGG                       379.                   259. NA         
##  7 2024-05-04 TOOK                       198.                   251. NA         
##  8 2024-05-05 BARC                       388.                   210. NA         
##  9 2024-05-05 CRAM                       274.                   315. NA         
## 10 2024-05-05 LIRO                       274.                   315. NA         
## # i 235 more rows
## # i abbreviated names: 1: surface_downwelling_longwave_flux_in_air,
## #   2: surface_downwelling_shortwave_flux_in_air
## # i 1 more variable: doy <dbl>
…
